Example analysis • matrixStats
…
I only focused on management occupation as one of the highest payed
jobs and wanted to see if there is a differenc between the percentage of
males and females in management in any of the counties

#What is the occupation of the parents?
childcare3<-childcare %>% filter(study_year>=2016) %>% 
  select(study_year,county_name, 39:53) 

childcare3 %>% 
  group_by(county_name) %>% 
  nest() %>% 
  mutate(Female_managment = map_dbl(data, ~ mean(.x$femp_m)),
         male_managment = map_dbl(data, ~ mean(.x$memp_m))) %>%
  arrange(desc(Female_managment))
#> # A tibble: 24 × 4
#> # Groups:   county_name [24]
#>    county_name         data              Female_managment male_managment
#>    <chr>               <list>                       <dbl>          <dbl>
#>  1 Howard County       <tibble [3 × 16]>             61.4           60.1
#>  2 Montgomery County   <tibble [3 × 16]>             57.1           55.3
#>  3 Frederick County    <tibble [3 × 16]>             50.1           43.1
#>  4 Anne Arundel County <tibble [3 × 16]>             49.9           44.1
#>  5 Carroll County      <tibble [3 × 16]>             48.3           39.7
#>  6 Calvert County      <tibble [3 × 16]>             48.1           34.3
#>  7 Charles County      <tibble [3 × 16]>             47.5           35.9
#>  8 Baltimore County    <tibble [3 × 16]>             47.5           39.7
#>  9 Queen Anne's County <tibble [3 × 16]>             47.1           37.1
#> 10 St. Mary's County   <tibble [3 × 16]>             46.8           43.3
#> # ℹ 14 more rows

Howard County has the highest percentage of male and female in
management.Then Montgomery county and Fredrick county.

childcare3 %>% filter(study_year==2018) %>% 
  mutate(managment = map2_dbl(femp_m,memp_m,mean)) %>%
  arrange(desc(managment)) %>% 
  select(study_year,county_name,managment)
#> # A tibble: 24 × 3
#>    study_year county_name         managment
#>         <dbl> <chr>                   <dbl>
#>  1       2018 Howard County            61.2
#>  2       2018 Montgomery County        57.1
#>  3       2018 Anne Arundel County      50.5
#>  4       2018 Frederick County         50.5
#>  5       2018 Carroll County           49.0
#>  6       2018 Charles County           48.2
#>  7       2018 Queen Anne's County      48.1
#>  8       2018 Baltimore County         48  
#>  9       2018 Calvert County           47.9
#> 10       2018 St. Mary's County        47.4
#> # ℹ 14 more rows
…
